%YAML 1.1
%TAG !u! tag:unity3d.com,2011:
--- !u!64 &5259296343247168282
MeshCollider:
  m_ObjectHideFlags: 0
  m_CorrespondingSourceObject: {fileID: 0}
  m_PrefabInstance: {fileID: 0}
  m_PrefabAsset: {fileID: 0}
  m_GameObject: {fileID: 3597206413518851629}
  m_Material: {fileID: 0}
  m_IsTrigger: 0
  m_Enabled: 1
  serializedVersion: 4
  m_Convex: 0
  m_CookingOptions: 30
  m_Mesh: {fileID: 4781277628412113339, guid: 9324dba648ad66e4ebe6978d47731413, type: 3}
--- !u!1 &6243474767955948658
GameObject:
  m_ObjectHideFlags: 0
  m_CorrespondingSourceObject: {fileID: 0}
  m_PrefabInstance: {fileID: 0}
  m_PrefabAsset: {fileID: 0}
  serializedVersion: 6
  m_Component:
  - component: {fileID: 6996666319610054582}
  m_Layer: 0
  m_Name: AzureTree
  m_TagString: Untagged
  m_Icon: {fileID: 0}
  m_NavMeshLayer: 0
  m_StaticEditorFlags: 0
  m_IsActive: 1
--- !u!4 &6996666319610054582
Transform:
  m_ObjectHideFlags: 0
  m_CorrespondingSourceObject: {fileID: 0}
  m_PrefabInstance: {fileID: 0}
  m_PrefabAsset: {fileID: 0}
  m_GameObject: {fileID: 6243474767955948658}
  m_LocalRotation: {x: 0, y: 0, z: 0, w: 1}
  m_LocalPosition: {x: 0, y: 0, z: 0}
  m_LocalScale: {x: 1, y: 1, z: 1}
  m_Children:
  - {fileID: 394408233427454362}
  m_Father: {fileID: 0}
  m_RootOrder: 0
  m_LocalEulerAnglesHint: {x: 0, y: 0, z: 0}
--- !u!1001 &212655786526223985
PrefabInstance:
  m_ObjectHideFlags: 0
  serializedVersion: 2
  m_Modification:
    m_TransformParent: {fileID: 6996666319610054582}
    m_Modifications:
    - target: {fileID: -8679921383154817045, guid: 9324dba648ad66e4ebe6978d47731413,
        type: 3}
      propertyPath: m_RootOrder
      value: 0
      objectReference: {fileID: 0}
    - target: {fileID: -8679921383154817045, guid: 9324dba648ad66e4ebe6978d47731413,
        type: 3}
      propertyPath: m_LocalPosition.x
      value: 0
      objectReference: {fileID: 0}
    - target: {fileID: -8679921383154817045, guid: 9324dba648ad66e4ebe6978d47731413,
        type: 3}
      propertyPath: m_LocalPosition.y
      value: 0
      objectReference: {fileID: 0}
    - target: {fileID: -8679921383154817045, guid: 9324dba648ad66e4ebe6978d47731413,
        type: 3}
      propertyPath: m_LocalPosition.z
      value: 0
      objectReference: {fileID: 0}
    - target: {fileID: -8679921383154817045, guid: 9324dba648ad66e4ebe6978d47731413,
        type: 3}
      propertyPath: m_LocalRotation.w
      value: 1
      objectReference: {fileID: 0}
    - target: {fileID: -8679921383154817045, guid: 9324dba648ad66e4ebe6978d47731413,
        type: 3}
      propertyPath: m_LocalRotation.x
      value: 0
      objectReference: {fileID: 0}
    - target: {fileID: -8679921383154817045, guid: 9324dba648ad66e4ebe6978d47731413,
        type: 3}
      propertyPath: m_LocalRotation.y
      value: 0
      objectReference: {fileID: 0}
    - target: {fileID: -8679921383154817045, guid: 9324dba648ad66e4ebe6978d47731413,
        type: 3}
      propertyPath: m_LocalRotation.z
      value: 0
      objectReference: {fileID: 0}
    - target: {fileID: -8679921383154817045, guid: 9324dba648ad66e4ebe6978d47731413,
        type: 3}
      propertyPath: m_LocalEulerAnglesHint.x
      value: 0
      objectReference: {fileID: 0}
    - target: {fileID: -8679921383154817045, guid: 9324dba648ad66e4ebe6978d47731413,
        type: 3}
      propertyPath: m_LocalEulerAnglesHint.y
      value: 0
      objectReference: {fileID: 0}
    - target: {fileID: -8679921383154817045, guid: 9324dba648ad66e4ebe6978d47731413,
        type: 3}
      propertyPath: m_LocalEulerAnglesHint.z
      value: 0
      objectReference: {fileID: 0}
    - target: {fileID: 919132149155446097, guid: 9324dba648ad66e4ebe6978d47731413,
        type: 3}
      propertyPath: m_Name
      value: ld_trees_basic
      objectReference: {fileID: 0}
    - target: {fileID: 7113232789235503381, guid: 9324dba648ad66e4ebe6978d47731413,
        type: 3}
      propertyPath: m_Materials.Array.data[0]
      value: 
      objectReference: {fileID: 2100000, guid: 304d58622356af843b68afd6306b53d1, type: 2}
    - target: {fileID: 7284285466027374187, guid: 9324dba648ad66e4ebe6978d47731413,
        type: 3}
      propertyPath: m_Materials.Array.data[0]
      value: 
      objectReference: {fileID: 2100000, guid: 45c3175aa4fe4ae4e8e0da3456e517cd, type: 2}
    m_RemovedComponents: []
  m_SourcePrefab: {fileID: 100100000, guid: 9324dba648ad66e4ebe6978d47731413, type: 3}
--- !u!4 &394408233427454362 stripped
Transform:
  m_CorrespondingSourceObject: {fileID: -8679921383154817045, guid: 9324dba648ad66e4ebe6978d47731413,
    type: 3}
  m_PrefabInstance: {fileID: 212655786526223985}
  m_PrefabAsset: {fileID: 0}
--- !u!1 &3597206413518851629 stripped
GameObject:
  m_CorrespondingSourceObject: {fileID: 3681790978099765340, guid: 9324dba648ad66e4ebe6978d47731413,
    type: 3}
  m_PrefabInstance: {fileID: 212655786526223985}
  m_PrefabAsset: {fileID: 0}
