%YAML 1.1
%TAG !u! tag:unity3d.com,2011:
--- !u!21 &2100000
Material:
  serializedVersion: 6
  m_ObjectHideFlags: 0
  m_CorrespondingSourceObject: {fileID: 0}
  m_PrefabInstance: {fileID: 0}
  m_PrefabAsset: {fileID: 0}
  m_Name: Bonus_Sky
  m_Shader: {fileID: 4800000, guid: 3c1455edc49af4cc49c1cae67fb2dba3, type: 3}
  m_ShaderKeywords: 
  m_LightmapFlags: 4
  m_EnableInstancingVariants: 0
  m_DoubleSidedGI: 0
  m_CustomRenderQueue: -1
  stringTagMap: {}
  disabledShaderPasses: []
  m_SavedProperties:
    serializedVersion: 3
    m_TexEnvs:
    - _MainTex:
        m_Texture: {fileID: 0}
        m_Scale: {x: 1, y: 1}
        m_Offset: {x: 0, y: 0}
    m_Ints: []
    m_Floats: []
    m_Colors:
    - _ColorA: {r: 0.2980392, g: 1, b: 0.511348, a: 1}
    - _ColorB: {r: 0.9245283, g: 0.4854638, b: 0.22241008, a: 1}
    - _ColorC: {r: 0.9811321, g: 0.9698611, b: 0.745105, a: 1}
  m_BuildTextureStacks: []
